date,close
0,0
0.005,1
0.01,3
0.015,4
0.02,6
0.025,2
0.03,3
0.035,3
0.04,6
0.045,4
0.05,6
0.055,2
0.06,4
0.065,6
0.07,2
0.075,2
0.08,3
0.085,3
0.09,3
0.095,3
0.1,3
0.105,5
0.11,4
0.115,2
0.12,0
0.125,1
0.13,2
0.135,2
0.14,4
0.145,2
0.15,2
0.155,6
0.16,2
0.165,5
0.17,2
0.175,0
0.18,7
0.185,6
0.19,4
0.195,5
0.2,2
0.205,2
0.21,0
0.215,5
0.22,1
0.225,1
0.23,7
0.235,5
0.24,4
0.245,2
0.25,1
0.255,6
0.26,0
0.265,5
0.27,1
0.275,0
0.28,6
0.285,3
0.29,2
0.295,3
0.3,4
0.305,5
0.31,2
0.315,0
0.32,3
0.325,3
0.33,0
0.335,2
0.34,2
0.345,3
0.35,0
0.355,4
0.36,5
0.365,6
0.37,2
0.375,7
0.38,0
0.385,1
0.39,4
0.395,4
0.4,3
0.405,4
0.41,2
0.415,4
0.42,2
0.425,4
0.43,4
0.435,0
0.44,0
0.445,6
0.45,3
0.455,4
0.46,4
0.465,4
0.47,4
0.475,7
0.48,1
0.485,3
0.49,2
0.495,2
0.5,7
0.505,1
0.51,5
0.515,5
0.52,1
0.525,7
0.53,4
0.535,1
0.54,1
0.545,7
0.55,4
0.555,5
0.56,3
0.565,7
0.57,1
0.575,4
0.58,3
0.585,5
0.59,5
0.595,2
0.6,4
0.605,0
0.61,6
0.615,0
0.62,5
0.625,3
0.63,0
0.635,5
0.64,6
0.645,2
0.65,7
0.655,5
0.66,2
0.665,5
0.67,2
0.675,2
0.68,5
0.685,5
0.69,3
0.695,5
0.7,5
0.705,0
0.71,3
0.715,0
0.72,7
0.725,3
0.73,5
0.735,3
0.74,1
0.745,3
0.75,6
0.755,5
0.76,4
0.765,4
0.77,5
0.775,1
0.78,0
0.785,4
0.79,6
0.795,6
0.8,6
0.805,6
0.81,4
0.815,1
0.82,3
0.825,6
0.83,4
0.835,1
0.84,4
0.845,0
0.85,6
0.855,2
0.86,7
0.865,1
0.87,2
0.875,7
0.88,4
0.885,7
0.89,2
0.895,5
0.9,3
0.905,0
0.91,2
0.915,6
0.92,4
0.925,0
0.93,0
0.935,5
0.94,5
0.945,6
0.95,4
0.955,3
0.96,6
0.965,0
0.97,4
0.975,1
0.98,6
0.985,1
0.99,3
0.995,3
1,1
1.005,1
1.01,4
1.015,1
1.02,3
1.025,6
1.03,0
1.035,6
1.04,6
1.045,2
1.05,4
1.055,1
1.06,2
1.065,7
1.07,6
1.075,6
1.08,6
1.085,6
1.09,3
1.095,3
1.1,6
1.105,7
1.11,7
1.115,3
1.12,0
1.125,3
1.13,5
1.135,6
1.14,4
1.145,0
1.15,1
1.155,5
1.16,1
1.165,5
1.17,6
1.175,3
1.18,3
1.185,5
1.19,2
1.195,2
1.2,0
1.205,7
1.21,2
1.215,2
1.22,6
1.225,2
1.23,1
1.235,5
1.24,0
1.245,4
1.25,1
1.255,6
1.26,4
1.265,0
1.27,2
1.275,4
1.28,3
1.285,0
1.29,2
1.295,0
1.3,7
1.305,4
1.31,5
1.315,1
1.32,2
1.325,3
1.33,3
1.335,6
1.34,1
1.345,6
1.35,0
1.355,1
1.36,5
1.365,3
1.37,3
1.375,4
1.38,4
1.385,4
1.39,1
1.395,5
1.4,1
1.405,2
1.41,3
1.415,5
1.42,2
1.425,5
1.43,2
1.435,5
1.44,6
1.445,4
1.45,5
1.455,5
1.46,1
1.465,2
1.47,6
1.475,3
1.48,5
1.485,2
1.49,1
1.495,6
1.5,1
1.505,2
1.51,0
1.515,6
1.52,5
1.525,3
1.53,2
1.535,1
1.54,6
1.545,4
1.55,6
1.555,0
1.56,6
1.565,2
1.57,5
1.575,0
1.58,1
1.585,0
1.59,5
1.595,6
1.6,4
1.605,2
1.61,4
1.615,4
1.62,4
1.625,2
1.63,0
1.635,1
1.64,4
1.645,1
1.65,0
1.655,5
1.66,3
1.665,7
1.67,4
1.675,1
1.68,2
1.685,6
1.69,2
1.695,1
1.7,2
1.705,1
1.71,1
1.715,0
1.72,4
1.725,7
1.73,0
1.735,4
1.74,6
1.745,5
1.75,3
1.755,3
1.76,7
1.765,7
1.77,0
1.775,4
1.78,1
1.785,0
1.79,5
1.795,5
1.8,1
1.805,5
1.81,3
1.815,5
1.82,4
1.825,6
1.83,5
1.835,6
1.84,4
1.845,1
1.85,7
1.855,7
1.86,1
1.865,1
1.87,6
1.875,6
1.88,0
1.885,6
1.89,2
1.895,7
1.9,4
1.905,5
1.91,2
1.915,4
1.92,4
1.925,1
1.93,0
1.935,6
1.94,1
1.945,5
1.95,3
1.955,3
1.96,2
1.965,6
1.97,0
1.975,6
1.98,4
1.985,6
1.99,5
1.995,2
2,6
2.005,3
2.01,1
2.015,0
2.02,4
2.025,7
2.03,6
2.035,4
2.04,6
2.045,0
2.05,3
2.055,3
2.06,5
2.065,5
2.07,7
2.075,2
2.08,7
2.085,6
2.09,0
2.095,1
2.1,4
2.105,3
2.11,3
2.115,7
2.12,2
2.125,4
2.13,6
2.135,7
2.14,2
2.145,3
2.15,1
2.155,1
2.16,6
2.165,2
2.17,1
2.175,3
2.18,1
2.185,7
2.19,0
2.195,7
2.2,0
2.205,4
2.21,3
2.215,5
2.22,1
2.225,2
2.23,0
2.235,1
2.24,1
2.245,0
2.25,1
2.255,5
2.26,3
2.265,5
2.27,4
2.275,5
2.28,2
2.285,2
2.29,5
2.295,4
2.3,5
2.305,6
2.31,5
2.315,4
2.32,0
2.325,6
2.33,7
2.335,2
2.34,5
2.345,0
2.35,2
2.355,5
2.36,4
2.365,4
2.37,3
2.375,6
2.38,6
2.385,2
2.39,6
2.395,7
2.4,2
2.405,0
2.41,5
2.415,6
2.42,5
2.425,1
2.43,3
2.435,7
2.44,4
2.445,1
2.45,3
2.455,1
2.46,0
2.465,0
2.47,5
2.475,1
2.48,5
2.485,5
2.49,2
2.495,2
2.5,4
2.505,4
2.51,0
2.515,1
2.52,0
2.525,2
2.53,6
2.535,0
2.54,5
2.545,5
2.55,7
2.555,6
2.56,5
2.565,3
2.57,5
2.575,3
2.58,5
2.585,1
2.59,2
2.595,2
2.6,2
2.605,5
2.61,4
2.615,2
2.62,4
2.625,1
2.63,2
2.635,2
2.64,5
2.645,5
2.65,5
2.655,2
2.66,1
2.665,5
2.67,3
2.675,2
2.68,0
2.685,2
2.69,1
2.695,4
2.7,6
2.705,0
2.71,4
2.715,4
2.72,3
2.725,1
2.73,6
2.735,1
2.74,2
2.745,1
2.75,3
2.755,3
2.76,5
2.765,6
2.77,5
2.775,3
2.78,7
2.785,0
2.79,5
2.795,4
2.8,5
2.805,2
2.81,7
2.815,6
2.82,0
2.825,3
2.83,1
2.835,0
2.84,4
2.845,2
2.85,5
2.855,3
2.86,2
2.865,1
2.87,7
2.875,5
2.88,1
2.885,6
2.89,0
2.895,3
2.9,6
2.905,2
2.91,7
2.915,5
2.92,2
2.925,4
2.93,7
2.935,0
2.94,4
2.945,4
2.95,5
2.955,2
2.96,6
2.965,5
2.97,1
2.975,5
2.98,0
2.985,1
2.99,5
2.995,5
3,3
3.005,2
3.01,1
3.015,5
3.02,2
3.025,0
3.03,4
3.035,4
3.04,5
3.045,3
3.05,6
3.055,4
3.06,6
3.065,5
3.07,1
3.075,0
3.08,2
3.085,0
3.09,0
3.095,6
3.1,4
3.105,6
3.11,0
3.115,2
3.12,3
3.125,0
3.13,1
3.135,3
3.14,1
3.145,6
3.15,1
3.155,5
3.16,1
3.165,1
3.17,3
3.175,2
3.18,0
3.185,7
3.19,7
3.195,6
3.2,3
3.205,5
3.21,2
3.215,1
3.22,3
3.225,3
3.23,1
3.235,5
3.24,3
3.245,1
3.25,4
3.255,0
3.26,7
3.265,4
3.27,3
3.275,2
3.28,4
3.285,3
3.29,6
3.295,6
3.3,1
3.305,7
3.31,3
3.315,3
3.32,0
3.325,6
3.33,5
3.335,1
3.34,6
3.345,4
3.35,6
3.355,1
3.36,1
3.365,1
3.37,2
3.375,5
3.38,4
3.385,3
3.39,4
3.395,0
3.4,4
3.405,0
3.41,0
3.415,4
3.42,5
3.425,2
3.43,7
3.435,1
3.44,6
3.445,5
3.45,1
3.455,0
3.46,5
3.465,5
3.47,2
3.475,5
3.48,3
3.485,0
3.49,6
3.495,2
3.5,4
3.505,5
3.51,3
3.515,6
3.52,5
3.525,6
3.53,3
3.535,2
3.54,1
3.545,7
3.55,2
3.555,5
3.56,7
3.565,2
3.57,1
3.575,5
3.58,4
3.585,0
3.59,6
3.595,2
3.6,6
3.605,7
3.61,2
3.615,3
3.62,3
3.625,5
3.63,1
3.635,7
3.64,4
3.645,6
3.65,1
3.655,0
3.66,3
3.665,4
3.67,5
3.675,1
3.68,2
3.685,1
3.69,3
3.695,3
3.7,1
3.705,5
3.71,1
3.715,1
3.72,7
3.725,3
3.73,5
3.735,3
3.74,3
3.745,4
3.75,6
3.755,1
3.76,3
3.765,1
3.77,5
3.775,6
3.78,5
3.785,5
3.79,6
3.795,2
3.8,4
3.805,7
3.81,2
3.815,0
3.82,4
3.825,0
3.83,1
3.835,6
3.84,2
3.845,4
3.85,2
3.855,3
3.86,2
3.865,2
3.87,4
3.875,1
3.88,5
3.885,2
3.89,5
3.895,1
3.9,5
3.905,3
3.91,2
3.915,2
3.92,3
3.925,7
3.93,0
3.935,2
3.94,5
3.945,6
3.95,4
3.955,2
3.96,5
3.965,6
3.97,2
3.975,2
3.98,6
3.985,3
3.99,1
3.995,1
4,0
4.005,2
4.01,4
4.015,2
4.02,5
4.025,1
4.03,3
4.035,3
4.04,2
4.045,1
4.05,3
4.055,1
4.06,5
4.065,6
4.07,2
4.075,1
4.08,5
4.085,2
4.09,2
4.095,3
4.1,1
4.105,6
4.11,4
4.115,7
4.12,4
4.125,6
4.13,1
4.135,3
4.14,2
4.145,2
4.15,5
4.155,2
4.16,5
4.165,1
4.17,4
4.175,2
4.18,2
4.185,0
4.19,5
4.195,4
4.2,1
4.205,1
4.21,5
4.215,5
4.22,7
4.225,0
4.23,6
4.235,4
4.24,3
4.245,0
4.25,0
4.255,3
4.26,0
4.265,5
4.27,3
4.275,4
4.28,4
4.285,4
4.29,7
4.295,5
4.3,6
4.305,5
4.31,0
4.315,4
4.32,6
4.325,4
4.33,6
4.335,0
4.34,4
4.345,4
4.35,5
4.355,6
4.36,5
4.365,3
4.37,4
4.375,4
4.38,3
4.385,2
4.39,1
4.395,6
4.4,3
4.405,2
4.41,2
4.415,3
4.42,6
4.425,4
4.43,6
4.435,2
4.44,1
4.445,6
4.45,7
4.455,0
4.46,3
4.465,0
4.47,3
4.475,1
4.48,5
4.485,3
4.49,1
4.495,1
4.5,6
4.505,6
4.51,7
4.515,4
4.52,1
4.525,3
4.53,0
4.535,5
4.54,5
4.545,2
4.55,4
4.555,1
4.56,4
4.565,6
4.57,4
4.575,2
4.58,2
4.585,2
4.59,4
4.595,4
4.6,1
4.605,4
4.61,3
4.615,4
4.62,4
4.625,0
4.63,5
4.635,1
4.64,2
4.645,7
4.65,3
4.655,0
4.66,5
4.665,2
4.67,4
4.675,7
4.68,5
4.685,5
4.69,4
4.695,4
4.7,7
4.705,1
4.71,5
4.715,3
4.72,6
4.725,1
4.73,5
4.735,1
4.74,3
4.745,2
4.75,4
4.755,5
4.76,5
4.765,1
4.77,1
4.775,3
4.78,0
4.785,6
4.79,3
4.795,1
4.8,5
4.805,5
4.81,2
4.815,3
4.82,0
4.825,6
4.83,2
4.835,6
4.84,3
4.845,0
4.85,2
4.855,3
4.86,0
4.865,7
4.87,6
4.875,6
4.88,1
4.885,4
4.89,0
4.895,4
4.9,5
4.905,5
4.91,2
4.915,3
4.92,5
4.925,3
4.93,6
4.935,4
4.94,2
4.945,2
4.95,6
4.955,0
4.96,0
4.965,0
4.97,2
4.975,1
4.98,6
4.985,4
4.99,6
4.995,2
5,4
5.005,1
5.01,5
5.015,4
5.02,1
5.025,3
5.03,2
5.035,1
5.04,7
5.045,2
5.05,6
5.055,5
5.06,6
5.065,0
5.07,1
5.075,3
5.08,3
5.085,0
5.09,0
5.095,5
5.1,2
5.105,6
5.11,5
5.115,2
5.12,6
5.125,6
5.13,2
5.135,4
5.14,3
5.145,1
5.15,7
5.155,7
5.16,2
5.165,4
5.17,2
5.175,3
5.18,0
5.185,5
5.19,5
5.195,7
5.2,0
5.205,3
5.21,5
5.215,6
5.22,4
5.225,6
5.23,2
5.235,0
5.24,6
5.245,1
5.25,4
5.255,1
5.26,0
5.265,1
5.27,2
5.275,5
5.28,0
5.285,5
5.29,3
5.295,3
5.3,6
5.305,2
5.31,3
5.315,1
5.32,6
5.325,5
5.33,4
5.335,6
5.34,3
5.345,1
5.35,6
5.355,3
5.36,5
5.365,2
5.37,1
5.375,2
5.38,1
5.385,3
5.39,2
5.395,0
5.4,5
5.405,7
5.41,0
5.415,4
5.42,1
5.425,3
5.43,2
5.435,0
5.44,0
5.445,5
5.45,4
5.455,7
5.46,7
5.465,0
5.47,0
5.475,6
5.48,5
5.485,4
5.49,4
5.495,1
5.5,5
5.505,2
5.51,3
5.515,2
5.52,5
5.525,4
5.53,4
5.535,6
5.54,0
5.545,6
5.55,6
5.555,4
5.56,4
5.565,7
5.57,0
5.575,5
5.58,3
5.585,3
5.59,5
5.595,3
5.6,1
5.605,2
5.61,3
5.615,1
5.62,2
5.625,3
5.63,0
5.635,6
5.64,0
5.645,4
5.65,7
5.655,5
5.66,7
5.665,3
5.67,0
5.675,4
5.68,1
5.685,4
5.69,3
5.695,0
5.7,1
5.705,1
5.71,4
5.715,6
5.72,1
5.725,5
5.73,3
5.735,3
5.74,1
5.745,0
5.75,7
5.755,2
5.76,3
5.765,2
5.77,4
5.775,4
5.78,5
5.785,3
5.79,3
5.795,5
5.8,0
5.805,3
5.81,1
5.815,6
5.82,6
5.825,1
5.83,2
5.835,7
5.84,5
5.845,4
5.85,0
5.855,6
5.86,6
5.865,4
5.87,5
5.875,6
5.88,1
5.885,0
5.89,2
5.895,3
5.9,0
5.905,1
5.91,5
5.915,3
5.92,4
5.925,1
5.93,7
5.935,1
5.94,5
5.945,2
5.95,5
5.955,5
5.96,6
5.965,0
5.97,3
5.975,5
5.98,1
5.985,5
5.99,4
5.995,6
6,2
6.005,4
6.01,5
6.015,1
6.02,1
6.025,2
6.03,0
6.035,3
6.04,2
6.045,2
6.05,5
6.055,3
6.06,3
6.065,4
6.07,6
6.075,7
6.08,5
6.085,6
6.09,0
6.095,2
6.1,0
6.105,6
6.11,0
6.115,7
6.12,5
6.125,3
6.13,4
6.135,7
6.14,0
6.145,1
6.15,4
6.155,3
6.16,5
6.165,2
6.17,3
6.175,6
6.18,4
6.185,3
6.19,1
6.195,0
6.2,4
6.205,7
6.21,2
6.215,7
6.22,2
6.225,1
6.23,7
6.235,0
6.24,6
6.245,0
6.25,3
6.255,7
6.26,6
6.265,2
6.27,6
6.275,4
6.28,5
6.285,2
6.29,3
6.295,5
6.3,3
6.305,0
6.31,0
6.315,1
6.32,2
6.325,4
6.33,0
6.335,7
6.34,6
6.345,1
6.35,6
6.355,2
6.36,0
6.365,1
6.37,2
6.375,3
6.38,2
6.385,2
6.39,3
6.395,1
6.4,2
6.405,6
6.41,7
6.415,0
6.42,1
6.425,4
6.43,4
6.435,7
6.44,0
6.445,7
6.45,5
6.455,2
6.46,7
6.465,5
6.47,3
6.475,2
6.48,0
6.485,3
6.49,1
6.495,7
6.5,4
6.505,0
6.51,2
6.515,4
6.52,2
6.525,5
6.53,7
6.535,4
6.54,6
6.545,3
6.55,4
6.555,0
6.56,2
6.565,4
6.57,0
6.575,4
6.58,1
6.585,4
6.59,2
6.595,0
6.6,3
6.605,7
6.61,3
6.615,3
6.62,4
6.625,6
6.63,5
6.635,5
6.64,1
6.645,6
6.65,5
6.655,5
6.66,6
6.665,6
6.67,2
6.675,1
6.68,4
6.685,2
6.69,4
6.695,2
6.7,5
6.705,1
6.71,2
6.715,0
6.72,4
6.725,3
6.73,3
6.735,5
6.74,7
6.745,6
6.75,4
6.755,3
6.76,5
6.765,7
6.77,5
6.775,2
6.78,6
6.785,3
6.79,0
6.795,0
6.8,1
6.805,5
6.81,6
6.815,0
6.82,4
6.825,1
6.83,1
6.835,0
6.84,3
6.845,5
6.85,1
6.855,1
6.86,6
6.865,4
6.87,0
6.875,2
6.88,6
6.885,4
6.89,0
6.895,6
6.9,1
6.905,5
6.91,0
6.915,7
6.92,5
6.925,6
6.93,1
6.935,3
6.94,1
6.945,1
6.95,4
6.955,3
6.96,6
6.965,2
6.97,4
6.975,2
6.98,3
6.985,4
6.99,2
6.995,6
7,2
7.005,4
7.01,7
7.015,0
7.02,1
7.025,7
7.03,3
7.035,0
7.04,3
7.045,3
7.05,5
7.055,4
7.06,0
7.065,6
7.07,3
7.075,5
7.08,4
7.085,4
7.09,0
7.095,6
7.1,5
7.105,4
7.11,2
7.115,3
7.12,6
7.125,5
7.13,6
7.135,2
7.14,2
7.145,1
7.15,0
7.155,4
7.16,5
7.165,6
7.17,5
7.175,7
7.18,6
7.185,7
7.19,6
7.195,1
7.2,2
7.205,4
7.21,6
7.215,3
7.22,3
7.225,1
7.23,0
7.235,0
7.24,5
7.245,0
7.25,6
7.255,3
7.26,4
7.265,1
7.27,7
7.275,2
7.28,6
7.285,6
7.29,4
7.295,1
7.3,6
7.305,3
7.31,4
7.315,4
7.32,3
7.325,1
7.33,2
7.335,2
7.34,1
7.345,2
7.35,3
7.355,4
7.36,5
7.365,1
7.37,6
7.375,1
7.38,2
7.385,6
7.39,1
7.395,7
7.4,6
7.405,0
7.41,3
7.415,2
7.42,0
7.425,2
7.43,5
7.435,6
7.44,0
7.445,1
7.45,0
7.455,6
7.46,4
7.465,5
7.47,3
7.475,0
7.48,6
7.485,6
7.49,1
7.495,7
7.5,0
7.505,5
7.51,3
7.515,6
7.52,6
7.525,2
7.53,7
7.535,1
7.54,0
7.545,0
7.55,1
7.555,6
7.56,1
7.565,4
7.57,1
7.575,1
7.58,6
7.585,6
7.59,0
7.595,6
7.6,7
7.605,1
7.61,5
7.615,3
7.62,5
7.625,1
7.63,4
7.635,3
7.64,0
7.645,6
7.65,3
7.655,0
7.66,3
7.665,6
7.67,7
7.675,3
7.68,0
7.685,6
7.69,4
7.695,0
7.7,7
7.705,5
7.71,6
7.715,7
7.72,1
7.725,7
7.73,0
7.735,0
7.74,5
7.745,0
7.75,6
7.755,4
7.76,0
7.765,4
7.77,1
7.775,6
7.78,5
7.785,5
7.79,1
7.795,4
7.8,3
7.805,4
7.81,5
7.815,6
7.82,2
7.825,4
7.83,2
7.835,2
7.84,2
7.845,6
7.85,2
7.855,1
7.86,2
7.865,1
7.87,0
7.875,4
7.88,0
7.885,0
7.89,5
7.895,5
7.9,1
7.905,3
7.91,2
7.915,1
7.92,0
7.925,3
7.93,7
7.935,5
7.94,0
7.945,1
7.95,2
7.955,4
7.96,4
7.965,0
7.97,3
7.975,7
7.98,4
7.985,4
7.99,2
7.995,6
8,2
8.005,4
8.01,0
8.015,5
8.02,4
8.025,0
8.03,2
8.035,5
8.04,1
8.045,6
8.05,2
8.055,1
8.06,2
8.065,4
8.07,3
8.075,2
8.08,0
8.085,3
8.09,0
8.095,0
8.1,3
8.105,2
8.11,3
8.115,1
8.12,2
8.125,7
8.13,1
8.135,6
8.14,3
8.145,3
8.15,5
8.155,5
8.16,0
8.165,5
8.17,3
8.175,4
8.18,4
8.185,4
8.19,1
8.195,5
8.2,3
8.205,3
8.21,7
8.215,5
8.22,0
8.225,2
8.23,1
8.235,0
8.24,5
8.245,1
8.25,0
8.255,1
8.26,2
8.265,4
8.27,3
8.275,4
8.28,3
8.285,4
8.29,4
8.295,6
8.3,6
8.305,1
8.31,4
8.315,5
8.32,5
8.325,6
8.33,2
8.335,2
8.34,4
8.345,4
8.35,0
8.355,7
8.36,6
8.365,6
8.37,4
8.375,6
8.38,1
8.385,5
8.39,5
8.395,5
8.4,6
8.405,5
8.41,7
8.415,1
8.42,2
8.425,2
8.43,5
8.435,5
8.44,5
8.445,1
8.45,3
8.455,4
8.46,2
8.465,7
8.47,2
8.475,0
8.48,6
8.485,5
8.49,2
8.495,2
8.5,1
8.505,1
8.51,1
8.515,6
8.52,0
8.525,6
8.53,5
8.535,1
8.54,3
8.545,3
8.55,6
8.555,1
8.56,1
8.565,5
8.57,2
8.575,3
8.58,0
8.585,0
8.59,1
8.595,4
8.6,1
8.605,4
8.61,0
8.615,2
8.62,4
8.625,3
8.63,1
8.635,3
8.64,0
8.645,4
8.65,5
8.655,0
8.66,6
8.665,5
8.67,6
8.675,5
8.68,4
8.685,4
8.69,6
8.695,7
8.7,7
8.705,6
8.71,1
8.715,1
8.72,4
8.725,2
8.73,4
8.735,3
8.74,2
8.745,5
8.75,0
8.755,3
8.76,2
8.765,1
8.77,5
8.775,5
8.78,4
8.785,0
8.79,0
8.795,4
8.8,3
8.805,5
8.81,4
8.815,1
8.82,3
8.825,3
8.83,7
8.835,7
8.84,0
8.845,6
8.85,6
8.855,6
8.86,4
8.865,7
8.87,0
8.875,0
8.88,2
8.885,4
8.89,4
8.895,4
8.9,1
8.905,4
8.91,0
8.915,2
8.92,5
8.925,5
8.93,0
8.935,1
8.94,4
8.945,1
8.95,6
8.955,7
8.96,6
8.965,2
8.97,1
8.975,1
8.98,5
8.985,0
8.99,0
8.995,5
9,6
9.005,6
9.01,4
9.015,3
9.02,6
9.025,4
9.03,4
9.035,0
9.04,1
9.045,0
9.05,5
9.055,2
9.06,5
9.065,4
9.07,5
9.075,2
9.08,1
9.085,6
9.09,4
9.095,5
9.1,7
9.105,2
9.11,5
9.115,5
9.12,4
9.125,6
9.13,6
9.135,2
9.14,6
9.145,6
9.15,0
9.155,5
9.16,5
9.165,5
9.17,1
9.175,3
9.18,1
9.185,5
9.19,3
9.195,3
9.2,5
9.205,0
9.21,6
9.215,2
9.22,4
9.225,3
9.23,5
9.235,6
9.24,2
9.245,1
9.25,4
9.255,1
9.26,3
9.265,2
9.27,6
9.275,0
9.28,1
9.285,5
9.29,1
9.295,7
9.3,3
9.305,1
9.31,4
9.315,1
9.32,6
9.325,5
9.33,4
9.335,0
9.34,2
9.345,0
9.35,3
9.355,0
9.36,1
9.365,1
9.37,2
9.375,6
9.38,4
9.385,7
9.39,4
9.395,6
9.4,0
9.405,1
9.41,0
9.415,3
9.42,3
9.425,5
9.43,2
9.435,4
9.44,3
9.445,4
9.45,3
9.455,6
9.46,6
9.465,7
9.47,0
9.475,4
9.48,4
9.485,4
9.49,4
9.495,6
9.5,4
9.505,7
9.51,6
9.515,5
9.52,0
9.525,1
9.53,3
9.535,5
9.54,0
9.545,0
9.55,3
9.555,0
9.56,0
9.565,2
9.57,3
9.575,3
9.58,1
9.585,5
9.59,7
9.595,4
9.6,1
9.605,2
9.61,3
9.615,0
9.62,1
9.625,3
9.63,3
9.635,5
9.64,7
9.645,0
9.65,3
9.655,4
9.66,7
9.665,2
9.67,1
9.675,0
9.68,3
9.685,4
9.69,4
9.695,3
9.7,4
9.705,0
9.71,2
9.715,5
9.72,3
9.725,6
9.73,1
9.735,5
9.74,3
9.745,1
9.75,1
9.755,4
9.76,3
9.765,4
9.77,4
9.775,3
9.78,0
9.785,0
9.79,0
9.795,6
9.8,7
9.805,4
9.81,2
9.815,7
9.82,6
9.825,3
9.83,6
9.835,1
9.84,0
9.845,3
9.85,3
9.855,4
9.86,4
9.865,6
9.87,1
9.875,7
9.88,4
9.885,3
9.89,3
9.895,7
9.9,3
9.905,5
9.91,4
9.915,5
9.92,1
9.925,0
9.93,1
9.935,0
9.94,1
9.945,2
9.95,6
9.955,1
9.96,5
9.965,1
9.97,0
9.975,3
9.98,5
9.985,6
9.99,4
9.995,5
10,2
10.005,6
